Applies OPLS noise filtering on numeric data — step_opls_denoise • tidySpectR
…
#> # A tibble: 2 x 6
#>   number operation type         trained skip  id                
#>    <int> <chr>     <chr>        <lgl>   <lgl> <chr>             
#> 1      1 step      normalize    FALSE   FALSE normalize_yUXKh   
#> 2      2 step      opls_denoise FALSE   FALSE opls_denoise_fHYTa
rec %>% prep() %>% bake(NULL)

#> OPLS
#> 183 samples x 109 variables and 1 response
#> standard scaling of predictors and response(s)
#>       R2X(cum) R2Y(cum) Q2(cum) RMSEE pre ort pR2Y  pQ2
#> Total    0.185    0.668   0.554 0.289   1   1 0.05 0.05
#> # A tibble: 183 x 110
#>    genderFc `(2-methoxyetho… `(gamma)Glu-Leu… `1-Methyluric a… `1-Methylxanthi…
#>       <dbl>            <dbl>            <dbl>            <dbl>            <dbl>
#>  1        1          -0.770           -1.20             -0.102           -0.378
#>  2        2           0.160            0.0410           -0.795           -0.762
#>  3        1          -0.180           -0.104             0.273            0.780
#>  4        1          -1.37             0.147             1.05             0.723
#>  5        1           0.0986           1.27             -0.210           -0.263
#>  6        1           0.555            0.328             0.687            0.774
#>  7        1          -0.572           -0.224             0.438            0.635
#>  8        1          -0.384            1.38             -0.478           -0.584
#>  9        2          -0.521           -1.89              0.272           -0.244
#> 10        1           0.140           -1.51              1.02             1.14 
#> # … with 173 more rows, and 105 more variables: `1,3-Dimethyluric acid` <dbl>,
#> #   `1,7-Dimethyluric acid` <dbl>, `2-acetamido-4-methylphenyl acetate` <dbl>,
#> #   `2-Aminoadipic acid` <dbl>, `2-Hydroxybenzyl alcohol` <dbl>,
#> #   `2-Isopropylmalic acid` <dbl>, `2-Methylhippuric acid` <dbl>,
#> #   `2,2-Dimethylglutaric acid` <dbl>, `3-Hydroxybenzyl alcohol` <dbl>,
#> #   `3-Hydroxyphenylacetic acid` <dbl>, `3-Indole carboxylic acid
#> #   glucuronide` <dbl>, `3-Methyl-2-oxovaleric acid` <dbl>,
#> #   `3-Methylcrotonylglycine` <dbl>, `3,3-Dimethylglutaric acid` <dbl>,
#> #   `3,4-Dihydroxybenzeneacetic acid` <dbl>, `3,5-dihydroxybenzoic
…
